-16 -72 -40 -40 -32 -56 -80 -24 -80 -72 400
-72 -16 -40 -32 -16 -72 -56 -80 -64 -32 432
40 -32 -24 872
-16 -32 -16 -16 880
-40 944
-40 -24 912
40 -24 912
72 -24 880
64 -32 -64 -72 -80 640
-80 -72 -64 -56 -48 -40 -32 -24 -16 -8 472
