-16 -8 952
-40 -32 -48 -24 816
-16 8 -16 8 -88 -120 -144 -56 -80 -88 288
-8 -16 -24 -16 -64 -64 752
-64 -88 -64 -24 32 -16 -32 -40 -16 544
-16 -16 -8 -24 896
-8 8 -48 -56 840
-16 -24 -24 904
-8 -16 952
-8 976
-32 -32 -16 -24 856
-8 -48 -48 -24 832
-80 -40 -72 40 -48 -64 -48 -72 464
48 -48 -16 -24 48 -112 -112 -88 -24 -48 344
-48 56 -64 -24 16 -32 -104 -56 -32 -32 -96 -24 312
-48 -64 -32 40 -32 -56 -64 600
-24 -16 -24 -16 880
992
992
-64 8 -80 -64 -64 -24 -8 -48 -32 528